<svg width="21" height="21" viewBox="0 0 21 21" fill="none" xmlns="http://www.w3.org/2000/svg">
<path d="M-6.39899e-06 0H8.57999L10.067 6.69L8.20699 8.55C9.30013 10.2524 10.7473 11.6993 12.45 12.792L14.31 10.933L21 12.42V21H20C16.1504 21.006 12.3816 19.8959 9.14999 17.804C6.76724 16.2619 4.73806 14.2328 3.19599 11.85C1.10414 8.61836 -0.00599712 4.84959 -6.39899e-06 1V0ZM2.02699 2C2.19518 5.11997 3.17742 8.14152 4.87599 10.764C6.26436 12.9089 8.09107 14.7356 10.236 16.124C12.8585 17.8226 15.88 18.8049 19 18.973V14.024L14.947 13.124L12.773 15.299L12.11 14.922C9.59272 13.4913 7.50865 11.4073 6.07799 8.89L5.70099 8.227L7.87599 6.053L6.97599 2H2.02699Z" fill="#008AB8"/>
</svg>
