<svg width="120" height="120" viewBox="0 0 120 120" fill="none" xmlns="http://www.w3.org/2000/svg">
<g clip-path="url(#clip0_54_651)">
<path d="M58.5649 56.9463C58.2522 57.1297 58.0578 57.4654 58.0578 57.8292L57.9656 92.3789C57.9656 92.7477 58.16 93.0874 58.4807 93.2718C58.7981 93.4547 59.1911 93.4537 59.5109 93.2678L87.7059 76.7762C88.0185 76.5928 88.213 76.2571 88.213 75.8933L88.3052 41.3426C88.3052 40.9738 88.1107 40.6341 87.79 40.4497C87.4714 40.2663 87.0785 40.2683 86.7598 40.4537L58.5649 56.9463ZM86.1625 75.301L60.022 90.59L60.1082 58.4215L86.2487 43.1315L86.1625 75.301Z" fill="#F98C4A"/>
<path d="M24.7899 97.4638C28.51 99.6132 44.4907 108.851 43.6948 108.392C45.6911 109.543 48.8178 109.543 50.8142 108.392C50.8347 108.381 50.8432 108.356 50.8628 108.342L95.0879 82.4724C96.2203 81.805 96.8457 80.8609 96.8457 79.8187C96.8463 79.5891 96.9977 24.9309 97 25.1635C96.99 24.1403 96.3306 23.1793 95.1921 22.5278L76.2892 11.6102C74.2749 10.4547 71.1461 10.4568 69.1638 11.6143L24.9122 37.5363C23.6711 38.2633 23.1557 39.2552 23.1524 40.182L23.0401 76.5506C23.0381 77.1168 23.4971 77.5778 24.0624 77.5798H24.0664C24.6316 77.5798 25.0906 77.1228 25.0926 76.5566L25.1968 42.9931C36.9938 49.8107 28.164 44.7607 43.316 53.4627L43.1697 105.715L25.7981 95.6759C25.3231 95.4154 25.0525 95.0967 25.0525 94.8081L25.0926 87.5484C25.0966 86.9812 24.6396 86.5192 24.0724 86.5162H24.0664C23.5031 86.5162 23.0442 86.9721 23.0401 87.5364L23.0001 94.8021C23.0001 95.8684 23.6595 96.8425 24.7899 97.4638ZM45.2361 106.859L45.3804 54.3877C46.6557 54.7166 48.3003 54.6832 49.4229 54.3897L49.2766 106.857C48.0721 107.326 46.4406 107.324 45.2361 106.859ZM94.7932 79.8157C94.7932 80.1003 94.5207 80.425 94.0476 80.7026L51.3323 105.689L51.478 53.4601C111.035 18.613 90.4938 30.6318 94.9376 28.0317L94.7932 79.8157ZM25.9504 39.3081L70.2021 13.3861C71.5603 12.5904 73.8826 12.596 75.265 13.3891L94.1679 24.3077L94.1719 24.3097C94.6469 24.5813 94.9456 24.917 94.9476 25.1846C94.9516 25.4462 94.661 25.7769 94.1819 26.0635C67.8558 41.4816 49.6777 52.1371 49.9186 51.9938C48.8539 52.6271 46.4821 52.8033 45.0282 52.0558C44.1147 51.5606 40.1776 49.2781 39.9205 49.1303L68.4577 32.532C72.4418 33.6365 76.6125 33.0137 79.3539 31.4271C81.3362 30.2706 82.4425 28.6711 82.4686 26.9083V21.5928C82.4686 19.835 81.3482 18.2085 79.3058 17.0079C75.4394 14.7841 69.4164 14.7851 65.5981 17.0089C63.6018 18.1604 62.4573 19.817 62.4573 21.5517V26.8462C62.4573 26.9438 62.4905 27.0289 62.4982 27.1268L32.2652 44.7074C31.6826 44.3688 26.8427 41.5868 25.7467 40.9024C25.0358 40.4031 24.988 39.871 25.9504 39.3081ZM80.4162 25.4131V26.8923C80.4001 27.8934 79.6565 28.8746 78.3236 29.6532C75.0487 31.5465 69.7574 31.4497 66.6584 29.6472C65.599 29.0493 64.5098 28.0525 64.5098 26.8462V25.365C64.5169 25.3707 64.5276 25.3763 64.5347 25.382C64.8459 25.6307 65.2008 25.8741 65.6142 26.1196C69.3269 28.412 76.488 28.4736 80.4162 25.4131ZM79.3358 23.6513C75.968 26.3877 69.7195 26.2252 66.6765 24.3628C63.7398 22.6197 63.8521 20.3853 66.6284 18.7848C69.8043 16.9358 75.0318 16.9171 78.2755 18.7827C80.4751 20.0753 81.2251 21.8545 79.3358 23.6513ZM63.1328 29.1321C63.7732 30.1783 64.896 31.0469 65.9629 31.6095L37.8727 47.9472L34.3125 45.8902L63.1328 29.1321Z" fill="#008AB8"/>
<path d="M24.0564 84.3353C24.6217 84.3353 25.0827 83.8773 25.0847 83.3121L25.0927 80.5622C25.0947 79.995 24.6357 79.535 24.0685 79.533C23.5033 79.533 23.0423 79.9909 23.0403 80.5562L23.0322 83.3061C23.0302 83.8733 23.4892 84.3333 24.0564 84.3353Z" fill="#008AB8"/>
<path d="M73.7057 66.9616C75.8002 65.752 77.4358 62.9079 77.4277 60.4876C77.4217 58.323 74.9885 55.2994 73.9442 54.1008C73.7389 53.8955 73.7289 53.8855 73.9342 54.0908C73.7017 53.8232 73.3389 53.71 73.0002 53.7581C72.6514 53.8122 72.3508 54.0497 72.2125 54.3734C71.2223 56.6604 68.9194 62.1993 68.9254 64.2177C68.9336 67.0143 71.1775 68.4213 73.7057 66.9616ZM73.4391 56.7385C74.4894 58.1346 75.3733 59.6448 75.3753 60.4937C75.3793 62.1893 74.1446 64.337 72.6795 65.1838C71.5931 65.8151 70.9821 65.4853 70.9778 64.2117C70.9738 63.1494 72.1563 59.8463 73.4391 56.7385Z" fill="#F98C4A"/>
<path d="M64.4516 77.265L82.8574 66.4988C83.3464 66.2121 83.5108 65.5838 83.2242 65.0947C82.9375 64.6037 82.3102 64.4423 81.8191 64.7269L63.4133 75.4932C62.9243 75.7798 62.7599 76.4082 63.0466 76.8972C63.3297 77.383 63.9558 77.5523 64.4516 77.265Z" fill="#F98C4A"/>
<path d="M77.3254 72.5649L67.911 78.0709C67.42 78.3575 67.2556 78.9858 67.5422 79.4749C67.8276 79.9645 68.4586 80.1281 68.9453 79.8427L78.3596 74.3368C78.8507 74.0502 79.015 73.4218 78.7284 72.9327C78.4418 72.4417 77.8084 72.2803 77.3254 72.5649Z" fill="#F98C4A"/>
</g>
<defs>
<clipPath id="clip0_54_651">
<rect width="120" height="120" fill="white"/>
</clipPath>
</defs>
</svg>
