<svg width="109" height="82" viewBox="0 0 109 82" fill="none" xmlns="http://www.w3.org/2000/svg">
<path d="M10.6221 80.3298C13.2056 81.8124 16.2666 82.5037 18.823 81.0031C19.7384 80.4652 26.8108 76.3813 27.0427 76.2471C29.256 74.9414 30.4755 72.3357 30.4755 68.9096C30.4755 68.8312 30.4697 68.7467 30.4691 68.6654L89.6006 31.5106C91.1082 32.2794 92.58 32.6964 93.969 32.6964C95.6391 32.6964 96.7182 32.0451 97.3544 31.7987C97.7264 31.5827 105.894 26.8382 105.394 27.1289C107.617 25.841 108.842 23.2363 108.842 19.797C108.861 13.1471 104.166 5.01919 98.3746 1.67492C95.3332 -0.0773649 92.4223 -0.319479 90.1814 0.991694C89.9544 1.12359 81.7059 5.91814 81.9573 5.77206C79.7661 7.05228 78.5455 9.64146 78.5201 13.0764C78.5201 13.2139 78.533 13.3517 78.5385 13.4894L19.5452 50.5489C16.708 49.0648 13.9142 48.8901 11.8161 50.112L3.62073 54.867L3.61686 54.8704L3.61409 54.8714C1.41075 56.1704 0.183594 58.7729 0.158167 62.2034C0.13495 68.8477 4.82687 76.9778 10.6221 80.3298ZM91.3212 2.9474C92.8325 2.06075 94.9374 2.30618 97.2425 3.63615C102.409 6.61891 106.596 13.8668 106.578 19.7937V19.797C106.578 22.395 105.754 24.3032 104.258 25.171L100.323 27.4573C100.403 27.1364 100.664 25.6397 100.664 24.5596C100.673 22.0654 100.017 19.363 98.8859 16.7826C97.1021 12.7058 93.9575 8.58381 90.1199 6.40332C89.2036 5.89545 88.5524 5.55929 87.3799 5.23698L91.3212 2.9474ZM80.8384 12.0427C81.0412 10.0319 81.8146 8.54766 83.1066 7.71795L83.1136 7.7156C84.9002 6.68376 87.2515 7.36336 89.0452 8.39385L89.0504 8.39662C94.1519 11.3365 98.4155 18.6073 98.3956 24.542C98.3956 26.1022 98.0433 27.9007 97.0925 29.0522C97.0844 29.0617 97.0737 29.0732 97.0652 29.083C95.764 30.6266 93.8169 30.7231 91.9082 30.0641L93.2415 29.2228C95.0709 28.1557 95.7511 26.0594 95.7511 23.9494L95.751 23.947C95.7733 19.5158 92.6287 13.7703 88.4888 11.3971C86.3429 10.1412 84.1871 9.97644 82.5609 10.9626L80.8384 12.0427ZM83.7471 12.8906C84.626 12.3567 85.9383 12.5269 87.3545 13.3561C90.6979 15.2726 93.5069 20.1185 93.487 23.9439C93.487 25.5657 92.995 26.7453 92.0674 27.2881L30.2378 66.1369C29.3629 61.0009 25.9898 55.1802 21.6554 51.8964L52.7013 32.3935L83.7471 12.8906ZM12.9537 52.07C14.7733 51.0094 17.1067 51.6995 19.0043 52.8328C23.9869 55.8049 28.2113 62.9649 28.2113 68.9096C28.2113 71.5021 27.3877 73.4147 25.9007 74.2925L21.9473 76.5787C22.1477 75.6969 22.3022 74.7159 22.3022 73.6645C22.3022 68.3648 19.2548 62.225 15.9221 58.8923C14.0268 56.9011 11.651 55.084 9.0003 54.364L12.9537 52.07ZM6.20548 56.3617C9.2058 56.053 12.2104 58.2774 14.3014 60.4732C17.1561 63.3279 20.038 68.887 20.038 73.6645C20.038 78.836 17.0023 81.3803 11.752 78.3686C6.5869 75.3803 2.40131 68.1324 2.42232 62.2166C2.4425 59.4244 3.45472 56.6942 6.20548 56.3617Z" fill="#008AB8"/>
<mask id="mask0_340_138" style="mask-type:alpha" maskUnits="userSpaceOnUse" x="0" y="0" width="109" height="82">
<path d="M10.6221 80.3298C13.2056 81.8124 16.2666 82.5037 18.823 81.0031C19.7384 80.4652 26.8108 76.3813 27.0427 76.2471C29.256 74.9414 30.4755 72.3357 30.4755 68.9096C30.4755 68.8312 30.4697 68.7467 30.4691 68.6654L89.6006 31.5106C91.1082 32.2794 92.58 32.6964 93.969 32.6964C95.6391 32.6964 96.7182 32.0451 97.3544 31.7987C97.7264 31.5827 105.894 26.8382 105.394 27.1289C107.617 25.841 108.842 23.2363 108.842 19.797C108.861 13.1471 104.166 5.01919 98.3746 1.67492C95.3332 -0.0773649 92.4223 -0.319479 90.1814 0.991694C89.9544 1.12359 81.7059 5.91814 81.9573 5.77206C79.7661 7.05228 78.5455 9.64146 78.5201 13.0764C78.5201 13.2139 78.533 13.3517 78.5385 13.4894L19.5452 50.5489C16.708 49.0648 13.9142 48.8901 11.8161 50.112L3.62073 54.867L3.61686 54.8704L3.61409 54.8714C1.41075 56.1704 0.183594 58.7729 0.158167 62.2034C0.13495 68.8477 4.82687 76.9778 10.6221 80.3298ZM91.3212 2.9474C92.8325 2.06075 94.9374 2.30618 97.2425 3.63615C102.409 6.61891 106.596 13.8668 106.578 19.7937V19.797C106.578 22.395 105.754 24.3032 104.258 25.171L100.323 27.4573C100.403 27.1364 100.664 25.6397 100.664 24.5596C100.673 22.0654 100.017 19.363 98.8859 16.7826C97.1021 12.7058 93.9575 8.58381 90.1199 6.40332C89.2036 5.89545 88.5524 5.55929 87.3799 5.23698L91.3212 2.9474ZM80.8384 12.0427C81.0412 10.0319 81.8146 8.54766 83.1066 7.71795L83.1136 7.7156C84.9002 6.68376 87.2515 7.36336 89.0452 8.39385L89.0504 8.39662C94.1519 11.3365 98.4155 18.6073 98.3956 24.542C98.3956 26.1022 98.0433 27.9007 97.0925 29.0522C97.0844 29.0617 97.0737 29.0732 97.0652 29.083C95.764 30.6266 93.8169 30.7231 91.9082 30.0641L93.2415 29.2228C95.0709 28.1557 95.7511 26.0594 95.7511 23.9494L95.751 23.947C95.7733 19.5158 92.6287 13.7703 88.4888 11.3971C86.3429 10.1412 84.1871 9.97644 82.5609 10.9626L80.8384 12.0427ZM83.7471 12.8906C84.626 12.3567 85.9383 12.5269 87.3545 13.3561C90.6979 15.2726 93.5069 20.1185 93.487 23.9439C93.487 25.5657 92.995 26.7453 92.0674 27.2881L30.2378 66.1369C29.3629 61.0009 25.9898 55.1802 21.6554 51.8964L52.7013 32.3935L83.7471 12.8906ZM12.9537 52.07C14.7733 51.0094 17.1067 51.6995 19.0043 52.8328C23.9869 55.8049 28.2113 62.9649 28.2113 68.9096C28.2113 71.5021 27.3877 73.4147 25.9007 74.2925L21.9473 76.5787C22.1477 75.6969 22.3022 74.7159 22.3022 73.6645C22.3022 68.3648 19.2548 62.225 15.9221 58.8923C14.0268 56.9011 11.651 55.084 9.0003 54.364L12.9537 52.07ZM6.20548 56.3617C9.2058 56.053 12.2104 58.2774 14.3014 60.4732C17.1561 63.3279 20.038 68.887 20.038 73.6645C20.038 78.836 17.0023 81.3803 11.752 78.3686C6.5869 75.3803 2.40131 68.1324 2.42232 62.2166C2.4425 59.4244 3.45472 56.6942 6.20548 56.3617Z" fill="black"/>
</mask>
<g mask="url(#mask0_340_138)">
<path d="M18.823 81.0033C16.2666 82.5039 13.2056 81.8126 10.6221 80.33C4.82687 76.978 0.13495 68.8479 0.158167 62.2035C0.183594 58.7731 1.41075 56.1706 3.61409 54.8716L3.61686 54.8706L3.62073 54.8672L11.8161 50.1122C13.9142 48.8903 16.708 49.065 19.5452 50.5491L21.6554 51.8966C25.9898 55.1804 29.3629 61.0011 30.2378 66.1371L30.4691 68.6656C30.4697 68.7468 30.4755 68.8314 30.4755 68.9098C30.4755 72.3358 29.256 74.9416 27.0427 76.2473C26.8108 76.3815 19.7384 80.4654 18.823 81.0033Z" fill="#F98C4A"/>
</g>
<path d="M12.4495 77.1571C16.1518 79.3131 18.656 78.0697 18.656 73.6647C18.656 69.2327 15.937 63.9352 12.7325 60.8404C11.2473 59.359 8.88185 57.6797 6.79243 57.6797C5.89362 57.6797 3.80304 58.1208 3.80304 62.208C3.80304 67.6059 7.66569 74.3937 12.4495 77.1571ZM16.3919 73.6647C16.3919 76.2735 15.682 76.4192 13.5849 75.1981C11.3539 73.9091 9.16934 71.3895 7.73214 68.4886C7.96781 68.3518 13.78 64.9775 13.4113 65.1916C14.998 67.5628 16.3919 70.8342 16.3919 73.6647ZM6.79243 59.9438C8.1905 59.9438 10.1445 61.4582 11.1461 62.4567C11.4434 62.7431 11.7364 63.0537 12.0183 63.3799L6.8466 66.3847C6.33473 64.911 6.06719 63.486 6.06719 62.208C6.06719 61.1179 6.29383 59.9438 6.79243 59.9438Z" fill="#F98C4A"/>
</svg>
