<svg width="56" height="65" viewBox="0 0 56 65" fill="none" xmlns="http://www.w3.org/2000/svg">
<g filter="url(#filter0_f_421_632)">
<ellipse cx="28" cy="56" rx="9" ry="2" fill="black" fill-opacity="0.7"/>
</g>
<g filter="url(#filter1_d_421_632)">
<path fill-rule="evenodd" clip-rule="evenodd" d="M37.248 46.4504C37.5937 46.1047 38.0016 45.8286 38.4417 45.6156C46.4659 41.7323 52 33.5124 52 24C52 10.7452 41.2548 0 28 0C14.7452 0 4 10.7452 4 24C4 33.6908 9.74363 42.0402 18.0124 45.8295C18.0315 45.8383 18.0361 45.8634 18.0212 45.8782C18.0095 45.89 18.0095 45.909 18.0212 45.9208L25.071 52.9706C26.6331 54.5327 29.1658 54.5327 30.7279 52.9706L37.248 46.4504Z" fill="white"/>
</g>
<path d="M47.5535 18.9355C44.0506 17.6082 40.25 16.8814 36.2788 16.8814C25.0037 16.8814 15.1041 22.7407 9.4881 31.5658C8.52878 29.2319 8 26.6774 8 24C8 12.9543 16.9999 4 28.1018 4C37.445 4 45.2995 10.3421 47.5535 18.9355Z" fill="#F98C4A"/>
<path d="M36.2788 27.729C40.219 27.729 43.9031 28.8199 47.0427 30.7148C44.2696 38.4577 36.8362 44.0002 28.1018 44.0002C23.9968 44.0002 20.1791 42.7759 16.9976 40.6744C20.0753 33.0849 27.5484 27.729 36.2788 27.729Z" fill="#008AB8"/>
<path d="M48.2035 24C48.2035 25.8664 47.9466 27.673 47.466 29.3868C44.1829 27.4712 40.3597 26.3729 36.2787 26.3729C27.0925 26.3729 19.2127 31.9377 15.8588 39.8639C13.4893 38.051 11.5374 35.7244 10.1716 33.0515C15.4522 24.1832 25.1676 18.2373 36.2787 18.2373C40.3967 18.2373 44.3229 19.054 47.9027 20.5334C48.1004 21.6594 48.2035 22.8177 48.2035 24Z" fill="#008AB8"/>
<defs>
<filter id="filter0_f_421_632" x="12" y="47" width="32" height="18" filterUnits="userSpaceOnUse" color-interpolation-filters="sRGB">
<feFlood flood-opacity="0" result="BackgroundImageFix"/>
<feBlend mode="normal" in="SourceGraphic" in2="BackgroundImageFix" result="shape"/>
<feGaussianBlur stdDeviation="3.5" result="effect1_foregroundBlur_421_632"/>
</filter>
<filter id="filter1_d_421_632" x="0" y="0" width="56" height="62.1421" filterUnits="userSpaceOnUse" color-interpolation-filters="sRGB">
<feFlood flood-opacity="0" result="BackgroundImageFix"/>
<feColorMatrix in="SourceAlpha" type="matrix" values="0 0 0 0 0 0 0 0 0 0 0 0 0 0 0 0 0 0 127 0" result="hardAlpha"/>
<feOffset dy="4"/>
<feGaussianBlur stdDeviation="2"/>
<feComposite in2="hardAlpha" operator="out"/>
<feColorMatrix type="matrix" values="0 0 0 0 0.0567188 0 0 0 0 0.117305 0 0 0 0 0.1375 0 0 0 0.2 0"/>
<feBlend mode="normal" in2="BackgroundImageFix" result="effect1_dropShadow_421_632"/>
<feBlend mode="normal" in="SourceGraphic" in2="effect1_dropShadow_421_632" result="shape"/>
</filter>
</defs>
</svg>
